Project 1
…
  #used this data wrangling to furhter analyze
  olympics_top %>% count(sport,medalist,sex)

## # A tibble: 96 x 4
##    sport         medalist sex       n
##    <chr>         <chr>    <chr> <int>
##  1 Alpine Skiing medalist F       130
##  2 Alpine Skiing medalist M       109
##  3 Alpine Skiing no medal F      1743
##  4 Alpine Skiing no medal M      2060
##  5 Archery       medalist F        37
##  6 Archery       medalist M       121
##  7 Archery       no medal F       394
##  8 Archery       no medal M       472
##  9 Basketball    medalist F       227
## 10 Basketball    medalist M       391
## #  with 86 more rows
…
